2
Test
  H1     1.0000      0.0000      0.0000
  H2     2.0000      0.0000      0.0000
2
Test
  H1     2.0000      0.0000      0.0000
  H2     3.0000      0.0000      0.0000
2
Test
  H1     3.0000      0.0000      0.0000
  H2     4.0000      0.0000      0.0000